[gd_scene load_steps=59 format=2]

[ext_resource path="res://Resources/World/Bush.tscn" type="PackedScene" id=1]
[ext_resource path="res://Resources/Player/Player.tscn" type="PackedScene" id=2]
[ext_resource path="res://Resources/World/GrassBackground.png" type="Texture" id=3]
[ext_resource path="res://Resources/World/DirtTileset.png" type="Texture" id=4]
[ext_resource path="res://Resources/World/CliffTileset.png" type="Texture" id=5]
[ext_resource path="res://Resources/World/Grass.tscn" type="PackedScene" id=6]
[ext_resource path="res://Resources/Enemies/Bat.tscn" type="PackedScene" id=7]
[ext_resource path="res://Resources/UI/HealthUI.tscn" type="PackedScene" id=8]
[ext_resource path="res://Resources/Utility/Camera2D.tscn" type="PackedScene" id=9]

[sub_resource type="TileSet" id=1]
0/name = "DirtTileset.png 0"
0/texture = ExtResource( 4 )
0/tex_offset = Vector2( 0, 0 )
0/modulate = Color( 1, 1, 1, 1 )
0/region = Rect2( 0, 0, 176, 80 )
0/tile_mode = 1
0/autotile/bitmask_mode = 1
0/autotile/bitmask_flags = [ Vector2( 0, 0 ), 432, Vector2( 0, 1 ), 438, Vector2( 0, 2 ), 54, Vector2( 0, 3 ), 48, Vector2( 1, 0 ), 504, Vector2( 1, 1 ), 511, Vector2( 1, 2 ), 63, Vector2( 1, 3 ), 56, Vector2( 2, 0 ), 216, Vector2( 2, 1 ), 219, Vector2( 2, 2 ), 27, Vector2( 2, 3 ), 24, Vector2( 3, 0 ), 144, Vector2( 3, 1 ), 146, Vector2( 3, 2 ), 18, Vector2( 3, 3 ), 16, Vector2( 4, 0 ), 176, Vector2( 4, 1 ), 182, Vector2( 4, 2 ), 434, Vector2( 4, 3 ), 50, Vector2( 4, 4 ), 178, Vector2( 5, 0 ), 248, Vector2( 5, 1 ), 255, Vector2( 5, 2 ), 507, Vector2( 5, 3 ), 59, Vector2( 5, 4 ), 251, Vector2( 6, 0 ), 440, Vector2( 6, 1 ), 447, Vector2( 6, 2 ), 510, Vector2( 6, 3 ), 62, Vector2( 6, 4 ), 446, Vector2( 7, 0 ), 152, Vector2( 7, 1 ), 155, Vector2( 7, 2 ), 218, Vector2( 7, 3 ), 26, Vector2( 7, 4 ), 316, Vector2( 8, 0 ), 184, Vector2( 8, 1 ), 191, Vector2( 8, 2 ), 506, Vector2( 8, 3 ), 58, Vector2( 8, 4 ), 186, Vector2( 9, 0 ), 443, Vector2( 9, 1 ), 254, Vector2( 9, 2 ), 442, Vector2( 9, 3 ), 190, Vector2( 10, 2 ), 250, Vector2( 10, 3 ), 187 ]
0/autotile/icon_coordinate = Vector2( 3, 3 )
0/autotile/tile_size = Vector2( 16, 16 )
0/autotile/spacing = 0
0/autotile/occluder_map = [  ]
0/autotile/navpoly_map = [  ]
0/autotile/priority_map = [  ]
0/autotile/z_index_map = [  ]
0/occluder_offset = Vector2( 0, 0 )
0/navigation_offset = Vector2( 0, 0 )
0/shape_offset = Vector2( 0, 0 )
0/shape_transform = Transform2D( 1, 0, 0, 1, 0, 0 )
0/shape_one_way = false
0/shape_one_way_margin = 0.0
0/shapes = [  ]
0/z_index = 0

[sub_resource type="ConvexPolygonShape2D" id=2]
points = PoolVector2Array( 0, 0, 32, 0, 32, 32, 0, 32 )

[sub_resource type="ConvexPolygonShape2D" id=3]
points = PoolVector2Array( 0, 0, 32, 0, 32, 32, 0, 32 )

[sub_resource type="ConvexPolygonShape2D" id=4]
points = PoolVector2Array( 0, 0, 32, 0, 32, 32, 0, 32 )

[sub_resource type="ConvexPolygonShape2D" id=5]
points = PoolVector2Array( 0, 0, 32, 0, 32, 32, 0, 32 )

[sub_resource type="ConvexPolygonShape2D" id=6]
points = PoolVector2Array( 0, 0, 32, 0, 32, 32, 0, 32 )

[sub_resource type="ConvexPolygonShape2D" id=7]
points = PoolVector2Array( 0, 0, 32, 0, 32, 32, 0, 32 )

[sub_resource type="ConvexPolygonShape2D" id=8]
points = PoolVector2Array( 0, 0, 32, 0, 32, 32, 0, 32 )

[sub_resource type="ConvexPolygonShape2D" id=9]
points = PoolVector2Array( 0, 0, 32, 0, 32, 32, 0, 32 )

[sub_resource type="ConvexPolygonShape2D" id=10]
points = PoolVector2Array( 0, 0, 32, 0, 32, 32, 0, 32 )

[sub_resource type="ConvexPolygonShape2D" id=11]
points = PoolVector2Array( 0, 0, 32, 0, 32, 32, 0, 32 )

[sub_resource type="ConvexPolygonShape2D" id=12]
points = PoolVector2Array( 0, 0, 32, 0, 32, 32, 0, 32 )

[sub_resource type="ConvexPolygonShape2D" id=13]
points = PoolVector2Array( 0, 0, 32, 0, 32, 32, 0, 32 )

[sub_resource type="ConvexPolygonShape2D" id=14]
points = PoolVector2Array( 0, 0, 32, 0, 32, 32, 0, 32 )

[sub_resource type="ConvexPolygonShape2D" id=15]
points = PoolVector2Array( 0, 0, 32, 0, 32, 32, 0, 32 )

[sub_resource type="ConvexPolygonShape2D" id=16]
points = PoolVector2Array( 0, 0, 32, 0, 32, 32, 0, 32 )

[sub_resource type="ConvexPolygonShape2D" id=17]
points = PoolVector2Array( 0, 0, 32, 0, 32, 32, 0, 32 )

[sub_resource type="ConvexPolygonShape2D" id=18]
points = PoolVector2Array( 0, 0, 32, 0, 32, 32, 0, 32 )

[sub_resource type="ConvexPolygonShape2D" id=19]
points = PoolVector2Array( 0, 0, 32, 0, 32, 32, 0, 32 )

[sub_resource type="ConvexPolygonShape2D" id=20]
points = PoolVector2Array( 0, 0, 32, 0, 32, 32, 0, 32 )

[sub_resource type="ConvexPolygonShape2D" id=21]
points = PoolVector2Array( 0, 0, 32, 0, 32, 32, 0, 32 )

[sub_resource type="ConvexPolygonShape2D" id=22]
points = PoolVector2Array( 0, 0, 32, 0, 32, 32, 0, 32 )

[sub_resource type="ConvexPolygonShape2D" id=23]
points = PoolVector2Array( 0, 0, 32, 0, 32, 32, 0, 32 )

[sub_resource type="ConvexPolygonShape2D" id=24]
points = PoolVector2Array( 0, 0, 32, 0, 32, 32, 0, 32 )

[sub_resource type="ConvexPolygonShape2D" id=25]
points = PoolVector2Array( 0, 0, 32, 0, 32, 32, 0, 32 )

[sub_resource type="ConvexPolygonShape2D" id=26]
points = PoolVector2Array( 0, 0, 32, 0, 32, 32, 0, 32 )

[sub_resource type="ConvexPolygonShape2D" id=27]
points = PoolVector2Array( 0, 0, 32, 0, 32, 32, 0, 32 )

[sub_resource type="ConvexPolygonShape2D" id=28]
points = PoolVector2Array( 0, 0, 32, 0, 32, 32, 0, 32 )

[sub_resource type="ConvexPolygonShape2D" id=29]
points = PoolVector2Array( 0, 0, 32, 0, 32, 32, 0, 32 )

[sub_resource type="ConvexPolygonShape2D" id=30]
points = PoolVector2Array( 0, 0, 32, 0, 32, 32, 0, 32 )

[sub_resource type="ConvexPolygonShape2D" id=31]
points = PoolVector2Array( 0, 0, 32, 0, 32, 32, 0, 32 )

[sub_resource type="ConvexPolygonShape2D" id=32]
points = PoolVector2Array( 0, 0, 32, 0, 32, 32, 0, 32 )

[sub_resource type="ConvexPolygonShape2D" id=33]
points = PoolVector2Array( 0, 0, 32, 0, 32, 32, 0, 32 )

[sub_resource type="ConvexPolygonShape2D" id=34]
points = PoolVector2Array( 0, 0, 32, 0, 32, 32, 0, 32 )

[sub_resource type="ConvexPolygonShape2D" id=35]
points = PoolVector2Array( 0, 0, 32, 0, 32, 32, 0, 32 )

[sub_resource type="ConvexPolygonShape2D" id=36]
points = PoolVector2Array( 0, 0, 32, 0, 32, 32, 0, 32 )

[sub_resource type="ConvexPolygonShape2D" id=37]
points = PoolVector2Array( 0, 0, 32, 0, 32, 32, 0, 32 )

[sub_resource type="ConvexPolygonShape2D" id=38]
points = PoolVector2Array( 0, 0, 32, 0, 32, 32, 0, 32 )

[sub_resource type="ConvexPolygonShape2D" id=39]
points = PoolVector2Array( 0, 0, 32, 0, 32, 32, 0, 32 )

[sub_resource type="ConvexPolygonShape2D" id=40]
points = PoolVector2Array( 0, 0, 32, 0, 32, 32, 0, 32 )

[sub_resource type="ConvexPolygonShape2D" id=41]
points = PoolVector2Array( 0, 0, 32, 0, 32, 32, 0, 32 )

[sub_resource type="ConvexPolygonShape2D" id=42]
points = PoolVector2Array( 0, 0, 32, 0, 32, 32, 0, 32 )

[sub_resource type="ConvexPolygonShape2D" id=43]
points = PoolVector2Array( 0, 0, 32, 0, 32, 32, 0, 32 )

[sub_resource type="ConvexPolygonShape2D" id=44]
points = PoolVector2Array( 0, 0, 32, 0, 32, 32, 0, 32 )

[sub_resource type="ConvexPolygonShape2D" id=45]
points = PoolVector2Array( 0, 0, 32, 0, 32, 32, 0, 32 )

[sub_resource type="ConvexPolygonShape2D" id=46]
points = PoolVector2Array( 0, 0, 32, 0, 32, 32, 0, 32 )

[sub_resource type="ConvexPolygonShape2D" id=47]
points = PoolVector2Array( 0, 0, 32, 0, 32, 32, 0, 32 )

[sub_resource type="ConvexPolygonShape2D" id=48]
points = PoolVector2Array( 0, 0, 32, 0, 32, 32, 0, 32 )

[sub_resource type="TileSet" id=49]
0/name = "CliffTileset.png 0"
0/texture = ExtResource( 5 )
0/tex_offset = Vector2( 0, 0 )
0/modulate = Color( 1, 1, 1, 1 )
0/region = Rect2( 0, 0, 352, 160 )
0/tile_mode = 1
0/autotile/bitmask_mode = 1
0/autotile/bitmask_flags = [ Vector2( 0, 0 ), 432, Vector2( 0, 1 ), 438, Vector2( 0, 2 ), 54, Vector2( 0, 3 ), 48, Vector2( 1, 0 ), 504, Vector2( 1, 1 ), 511, Vector2( 1, 2 ), 63, Vector2( 1, 3 ), 56, Vector2( 2, 0 ), 216, Vector2( 2, 1 ), 219, Vector2( 2, 2 ), 27, Vector2( 2, 3 ), 24, Vector2( 3, 0 ), 144, Vector2( 3, 1 ), 146, Vector2( 3, 2 ), 18, Vector2( 3, 3 ), 16, Vector2( 4, 0 ), 176, Vector2( 4, 1 ), 182, Vector2( 4, 2 ), 434, Vector2( 4, 3 ), 50, Vector2( 4, 4 ), 178, Vector2( 5, 0 ), 248, Vector2( 5, 1 ), 255, Vector2( 5, 2 ), 507, Vector2( 5, 3 ), 59, Vector2( 5, 4 ), 251, Vector2( 6, 0 ), 440, Vector2( 6, 1 ), 447, Vector2( 6, 2 ), 510, Vector2( 6, 3 ), 62, Vector2( 6, 4 ), 446, Vector2( 7, 0 ), 152, Vector2( 7, 1 ), 155, Vector2( 7, 2 ), 218, Vector2( 7, 3 ), 26, Vector2( 7, 4 ), 154, Vector2( 8, 0 ), 184, Vector2( 8, 1 ), 191, Vector2( 8, 2 ), 506, Vector2( 8, 3 ), 58, Vector2( 8, 4 ), 186, Vector2( 9, 0 ), 443, Vector2( 9, 1 ), 254, Vector2( 9, 2 ), 442, Vector2( 9, 3 ), 190, Vector2( 10, 2 ), 250, Vector2( 10, 3 ), 187 ]
0/autotile/icon_coordinate = Vector2( 3, 3 )
0/autotile/tile_size = Vector2( 32, 32 )
0/autotile/spacing = 0
0/autotile/occluder_map = [  ]
0/autotile/navpoly_map = [  ]
0/autotile/priority_map = [  ]
0/autotile/z_index_map = [  ]
0/occluder_offset = Vector2( 0, 0 )
0/navigation_offset = Vector2( 0, 0 )
0/shape_offset = Vector2( 0, 0 )
0/shape_transform = Transform2D( 1, 0, 0, 1, 0, 0 )
0/shape = SubResource( 2 )
0/shape_one_way = false
0/shape_one_way_margin = 1.0
0/shapes = [ {
"autotile_coord": Vector2( 0, 0 ),
"one_way": false,
"one_way_margin": 1.0,
"shape": SubResource( 2 ),
"shape_transform": Transform2D( 1, 0, 0, 1, 0, 0 )
}, {
"autotile_coord": Vector2( 1, 0 ),
"one_way": false,
"one_way_margin": 1.0,
"shape": SubResource( 3 ),
"shape_transform": Transform2D( 1, 0, 0, 1, 0, 0 )
}, {
"autotile_coord": Vector2( 2, 0 ),
"one_way": false,
"one_way_margin": 1.0,
"shape": SubResource( 4 ),
"shape_transform": Transform2D( 1, 0, 0, 1, 0, 0 )
}, {
"autotile_coord": Vector2( 0, 1 ),
"one_way": false,
"one_way_margin": 1.0,
"shape": SubResource( 5 ),
"shape_transform": Transform2D( 1, 0, 0, 1, 0, 0 )
}, {
"autotile_coord": Vector2( 1, 1 ),
"one_way": false,
"one_way_margin": 1.0,
"shape": SubResource( 6 ),
"shape_transform": Transform2D( 1, 0, 0, 1, 0, 0 )
}, {
"autotile_coord": Vector2( 2, 1 ),
"one_way": false,
"one_way_margin": 1.0,
"shape": SubResource( 7 ),
"shape_transform": Transform2D( 1, 0, 0, 1, 0, 0 )
}, {
"autotile_coord": Vector2( 2, 2 ),
"one_way": false,
"one_way_margin": 1.0,
"shape": SubResource( 8 ),
"shape_transform": Transform2D( 1, 0, 0, 1, 0, 0 )
}, {
"autotile_coord": Vector2( 1, 2 ),
"one_way": false,
"one_way_margin": 1.0,
"shape": SubResource( 9 ),
"shape_transform": Transform2D( 1, 0, 0, 1, 0, 0 )
}, {
"autotile_coord": Vector2( 0, 2 ),
"one_way": false,
"one_way_margin": 1.0,
"shape": SubResource( 10 ),
"shape_transform": Transform2D( 1, 0, 0, 1, 0, 0 )
}, {
"autotile_coord": Vector2( 0, 3 ),
"one_way": false,
"one_way_margin": 1.0,
"shape": SubResource( 11 ),
"shape_transform": Transform2D( 1, 0, 0, 1, 0, 0 )
}, {
"autotile_coord": Vector2( 1, 3 ),
"one_way": false,
"one_way_margin": 1.0,
"shape": SubResource( 12 ),
"shape_transform": Transform2D( 1, 0, 0, 1, 0, 0 )
}, {
"autotile_coord": Vector2( 2, 3 ),
"one_way": false,
"one_way_margin": 1.0,
"shape": SubResource( 13 ),
"shape_transform": Transform2D( 1, 0, 0, 1, 0, 0 )
}, {
"autotile_coord": Vector2( 3, 3 ),
"one_way": false,
"one_way_margin": 1.0,
"shape": SubResource( 14 ),
"shape_transform": Transform2D( 1, 0, 0, 1, 0, 0 )
}, {
"autotile_coord": Vector2( 3, 2 ),
"one_way": false,
"one_way_margin": 1.0,
"shape": SubResource( 15 ),
"shape_transform": Transform2D( 1, 0, 0, 1, 0, 0 )
}, {
"autotile_coord": Vector2( 3, 1 ),
"one_way": false,
"one_way_margin": 1.0,
"shape": SubResource( 16 ),
"shape_transform": Transform2D( 1, 0, 0, 1, 0, 0 )
}, {
"autotile_coord": Vector2( 3, 0 ),
"one_way": false,
"one_way_margin": 1.0,
"shape": SubResource( 17 ),
"shape_transform": Transform2D( 1, 0, 0, 1, 0, 0 )
}, {
"autotile_coord": Vector2( 4, 0 ),
"one_way": false,
"one_way_margin": 1.0,
"shape": SubResource( 18 ),
"shape_transform": Transform2D( 1, 0, 0, 1, 0, 0 )
}, {
"autotile_coord": Vector2( 4, 1 ),
"one_way": false,
"one_way_margin": 1.0,
"shape": SubResource( 19 ),
"shape_transform": Transform2D( 1, 0, 0, 1, 0, 0 )
}, {
"autotile_coord": Vector2( 4, 2 ),
"one_way": false,
"one_way_margin": 1.0,
"shape": SubResource( 20 ),
"shape_transform": Transform2D( 1, 0, 0, 1, 0, 0 )
}, {
"autotile_coord": Vector2( 4, 3 ),
"one_way": false,
"one_way_margin": 1.0,
"shape": SubResource( 21 ),
"shape_transform": Transform2D( 1, 0, 0, 1, 0, 0 )
}, {
"autotile_coord": Vector2( 4, 4 ),
"one_way": false,
"one_way_margin": 1.0,
"shape": SubResource( 22 ),
"shape_transform": Transform2D( 1, 0, 0, 1, 0, 0 )
}, {
"autotile_coord": Vector2( 5, 4 ),
"one_way": false,
"one_way_margin": 1.0,
"shape": SubResource( 23 ),
"shape_transform": Transform2D( 1, 0, 0, 1, 0, 0 )
}, {
"autotile_coord": Vector2( 6, 4 ),
"one_way": false,
"one_way_margin": 1.0,
"shape": SubResource( 24 ),
"shape_transform": Transform2D( 1, 0, 0, 1, 0, 0 )
}, {
"autotile_coord": Vector2( 7, 4 ),
"one_way": false,
"one_way_margin": 1.0,
"shape": SubResource( 25 ),
"shape_transform": Transform2D( 1, 0, 0, 1, 0, 0 )
}, {
"autotile_coord": Vector2( 8, 4 ),
"one_way": false,
"one_way_margin": 1.0,
"shape": SubResource( 26 ),
"shape_transform": Transform2D( 1, 0, 0, 1, 0, 0 )
}, {
"autotile_coord": Vector2( 8, 3 ),
"one_way": false,
"one_way_margin": 1.0,
"shape": SubResource( 27 ),
"shape_transform": Transform2D( 1, 0, 0, 1, 0, 0 )
}, {
"autotile_coord": Vector2( 9, 3 ),
"one_way": false,
"one_way_margin": 1.0,
"shape": SubResource( 28 ),
"shape_transform": Transform2D( 1, 0, 0, 1, 0, 0 )
}, {
"autotile_coord": Vector2( 10, 3 ),
"one_way": false,
"one_way_margin": 1.0,
"shape": SubResource( 29 ),
"shape_transform": Transform2D( 1, 0, 0, 1, 0, 0 )
}, {
"autotile_coord": Vector2( 10, 2 ),
"one_way": false,
"one_way_margin": 1.0,
"shape": SubResource( 30 ),
"shape_transform": Transform2D( 1, 0, 0, 1, 0, 0 )
}, {
"autotile_coord": Vector2( 9, 2 ),
"one_way": false,
"one_way_margin": 1.0,
"shape": SubResource( 31 ),
"shape_transform": Transform2D( 1, 0, 0, 1, 0, 0 )
}, {
"autotile_coord": Vector2( 9, 1 ),
"one_way": false,
"one_way_margin": 1.0,
"shape": SubResource( 32 ),
"shape_transform": Transform2D( 1, 0, 0, 1, 0, 0 )
}, {
"autotile_coord": Vector2( 9, 0 ),
"one_way": false,
"one_way_margin": 1.0,
"shape": SubResource( 33 ),
"shape_transform": Transform2D( 1, 0, 0, 1, 0, 0 )
}, {
"autotile_coord": Vector2( 8, 0 ),
"one_way": false,
"one_way_margin": 1.0,
"shape": SubResource( 34 ),
"shape_transform": Transform2D( 1, 0, 0, 1, 0, 0 )
}, {
"autotile_coord": Vector2( 7, 0 ),
"one_way": false,
"one_way_margin": 1.0,
"shape": SubResource( 35 ),
"shape_transform": Transform2D( 1, 0, 0, 1, 0, 0 )
}, {
"autotile_coord": Vector2( 6, 0 ),
"one_way": false,
"one_way_margin": 1.0,
"shape": SubResource( 36 ),
"shape_transform": Transform2D( 1, 0, 0, 1, 0, 0 )
}, {
"autotile_coord": Vector2( 5, 0 ),
"one_way": false,
"one_way_margin": 1.0,
"shape": SubResource( 37 ),
"shape_transform": Transform2D( 1, 0, 0, 1, 0, 0 )
}, {
"autotile_coord": Vector2( 5, 1 ),
"one_way": false,
"one_way_margin": 1.0,
"shape": SubResource( 38 ),
"shape_transform": Transform2D( 1, 0, 0, 1, 0, 0 )
}, {
"autotile_coord": Vector2( 5, 2 ),
"one_way": false,
"one_way_margin": 1.0,
"shape": SubResource( 39 ),
"shape_transform": Transform2D( 1, 0, 0, 1, 0, 0 )
}, {
"autotile_coord": Vector2( 5, 3 ),
"one_way": false,
"one_way_margin": 1.0,
"shape": SubResource( 40 ),
"shape_transform": Transform2D( 1, 0, 0, 1, 0, 0 )
}, {
"autotile_coord": Vector2( 6, 3 ),
"one_way": false,
"one_way_margin": 1.0,
"shape": SubResource( 41 ),
"shape_transform": Transform2D( 1, 0, 0, 1, 0, 0 )
}, {
"autotile_coord": Vector2( 7, 3 ),
"one_way": false,
"one_way_margin": 1.0,
"shape": SubResource( 42 ),
"shape_transform": Transform2D( 1, 0, 0, 1, 0, 0 )
}, {
"autotile_coord": Vector2( 7, 2 ),
"one_way": false,
"one_way_margin": 1.0,
"shape": SubResource( 43 ),
"shape_transform": Transform2D( 1, 0, 0, 1, 0, 0 )
}, {
"autotile_coord": Vector2( 8, 2 ),
"one_way": false,
"one_way_margin": 1.0,
"shape": SubResource( 44 ),
"shape_transform": Transform2D( 1, 0, 0, 1, 0, 0 )
}, {
"autotile_coord": Vector2( 8, 1 ),
"one_way": false,
"one_way_margin": 1.0,
"shape": SubResource( 45 ),
"shape_transform": Transform2D( 1, 0, 0, 1, 0, 0 )
}, {
"autotile_coord": Vector2( 7, 1 ),
"one_way": false,
"one_way_margin": 1.0,
"shape": SubResource( 46 ),
"shape_transform": Transform2D( 1, 0, 0, 1, 0, 0 )
}, {
"autotile_coord": Vector2( 6, 1 ),
"one_way": false,
"one_way_margin": 1.0,
"shape": SubResource( 47 ),
"shape_transform": Transform2D( 1, 0, 0, 1, 0, 0 )
}, {
"autotile_coord": Vector2( 6, 2 ),
"one_way": false,
"one_way_margin": 1.0,
"shape": SubResource( 48 ),
"shape_transform": Transform2D( 1, 0, 0, 1, 0, 0 )
} ]
0/z_index = 0

[node name="World" type="Node2D"]

[node name="Sprite" type="Sprite" parent="."]
position = Vector2( 160, 90 )
texture = ExtResource( 3 )
region_enabled = true
region_rect = Rect2( 0, 0, 1200, 800 )

[node name="DirtPathTileMap" type="TileMap" parent="."]
tile_set = SubResource( 1 )
cell_size = Vector2( 16, 16 )
collision_layer = 0
collision_mask = 0
format = 1
tile_data = PoolIntArray( -655369, 0, 196608, -655368, 0, 6, -655367, 0, 1, -655366, 0, 1, -655365, 0, 5, -655364, 0, 196609, -655363, 0, 196610, -589832, 0, 131072, -589831, 0, 131073, -589830, 0, 65544, -589829, 0, 131074, -655354, 0, 3, -655345, 0, 3, -655328, 0, 196608, -655327, 0, 7, -524294, 0, 65539, -589818, 0, 196612, -589817, 0, 6, -589816, 0, 1, -589815, 0, 1, -589814, 0, 1, -589813, 0, 2, -589810, 0, 0, -589809, 0, 131079, -589805, 0, 3, -589791, 0, 262148, -589790, 0, 196609, -589789, 0, 196610, -458758, 0, 65539, -524281, 0, 131072, -524280, 0, 131073, -524279, 0, 131073, -524278, 0, 65542, -524277, 0, 131077, -524276, 0, 1, -524275, 0, 5, -524274, 0, 196614, -524273, 0, 131074, -524271, 0, 0, -524270, 0, 5, -524269, 0, 196615, -524255, 0, 65539, -393233, 0, 3, -393222, 0, 65539, -458742, 0, 65536, -458741, 0, 65537, -458740, 0, 65537, -458739, 0, 65538, -458736, 0, 0, -458735, 0, 65545, -458734, 0, 131074, -458721, 0, 196608, -458720, 0, 6, -458719, 0, 131079, -327698, 0, 0, -327697, 0, 131079, -327686, 0, 65539, -393208, 0, 0, -393207, 0, 1, -393206, 0, 131078, -393205, 0, 65537, -393204, 0, 65537, -393203, 0, 131077, -393202, 0, 1, -393201, 0, 5, -393200, 0, 196614, -393199, 0, 131074, -393186, 0, 3, -393184, 0, 65540, -393183, 0, 131074, -262162, 0, 131072, -262161, 0, 196613, -262160, 0, 7, -262150, 0, 131076, -262149, 0, 2, -327672, 0, 65540, -327671, 0, 131073, -327670, 0, 65542, -327669, 0, 65537, -327668, 0, 65537, -327667, 0, 65537, -327666, 0, 65537, -327665, 0, 65538, -327650, 0, 131076, -327649, 0, 1, -327648, 0, 131079, -196624, 0, 65539, -196615, 0, 0, -196614, 0, 131078, -196613, 0, 131077, -196612, 0, 2, -262140, 0, 0, -262139, 0, 5, -262138, 0, 196609, -262137, 0, 196609, -262136, 0, 196615, -262134, 0, 131072, -262133, 0, 65542, -262132, 0, 65537, -262131, 0, 65541, -262130, 0, 131073, -262129, 0, 196613, -262128, 0, 7, -262115, 0, 0, -262114, 0, 131078, -262113, 0, 65541, -262112, 0, 131074, -131089, 0, 196608, -131088, 0, 196611, -131079, 0, 65536, -131078, 0, 65537, -131077, 0, 65541, -131076, 0, 131074, -196604, 0, 131072, -196603, 0, 131074, -196597, 0, 65536, -196596, 0, 65541, -196595, 0, 131074, -196592, 0, 131075, -196579, 0, 65540, -196578, 0, 131073, -196577, 0, 65543, -65552, 0, 131076, -65551, 0, 2, -65543, 0, 131072, -65542, 0, 65542, -65541, 0, 65538, -131061, 0, 65536, -131060, 0, 65538, -131043, 0, 65539, -131041, 0, 65539, -16, 0, 131072, -15, 0, 9, -14, 0, 2, -6, 0, 65536, -5, 0, 65538, -65526, 0, 0, -65525, 0, 131078, -65524, 0, 131077, -65523, 0, 2, -65507, 0, 131075, -65505, 0, 196612, -65504, 0, 196610, 65521, 0, 131072, 65522, 0, 65543, 65530, 0, 65536, 65531, 0, 65538, 10, 0, 131072, 11, 0, 65542, 12, 0, 65537, 13, 0, 65538, 30, 0, 196611, 131058, 0, 196612, 131059, 0, 196609, 131060, 0, 6, 131061, 0, 1, 131062, 0, 2, 131066, 0, 65536, 131067, 0, 131077, 131068, 0, 2, 65547, 0, 131072, 65548, 0, 131073, 65549, 0, 9, 65550, 0, 1, 65551, 0, 1, 65552, 0, 1, 65553, 0, 1, 65554, 0, 1, 65555, 0, 1, 65556, 0, 2, 65567, 0, 4, 65568, 0, 196610, 196596, 0, 131072, 196597, 0, 65542, 196598, 0, 131077, 196599, 0, 1, 196600, 0, 1, 196601, 0, 1, 196602, 0, 131078, 196603, 0, 65537, 196604, 0, 65538, 131085, 0, 131072, 131086, 0, 131073, 131087, 0, 131073, 131088, 0, 131073, 131089, 0, 131073, 131090, 0, 131073, 131091, 0, 131073, 131092, 0, 131074, 131103, 0, 65539, 262133, 0, 131072, 262134, 0, 131073, 262135, 0, 131073, 262136, 0, 131073, 262137, 0, 131073, 262138, 0, 131073, 262139, 0, 131073, 262140, 0, 9, 262141, 0, 2, 196639, 0, 196612, 196640, 0, 7, 196642, 0, 0, 196643, 0, 2, 327676, 0, 65536, 327677, 0, 131077, 327678, 0, 1, 327679, 0, 1, 262144, 0, 1, 262145, 0, 1, 262146, 0, 2, 262176, 0, 131076, 262177, 0, 1, 262178, 0, 131078, 262179, 0, 65538, 393212, 0, 65536, 393213, 0, 65537, 393214, 0, 65537, 393215, 0, 65537, 327680, 0, 65537, 327681, 0, 65537, 327682, 0, 131077, 327683, 0, 1, 327684, 0, 1, 327685, 0, 5, 327686, 0, 196609, 327687, 0, 196609, 327688, 0, 6, 327689, 0, 2, 327697, 0, 4, 327698, 0, 196609, 327699, 0, 196609, 327700, 0, 196610, 327703, 0, 0, 327704, 0, 1, 327705, 0, 1, 327706, 0, 2, 327711, 0, 4, 327712, 0, 196614, 327713, 0, 131073, 327714, 0, 131073, 327715, 0, 196613, 327716, 0, 196610, 458748, 0, 65536, 458749, 0, 65537, 458750, 0, 65537, 458751, 0, 65541, 393216, 0, 131073, 393217, 0, 65542, 393218, 0, 65537, 393219, 0, 65537, 393220, 0, 65537, 393221, 0, 65538, 393224, 0, 131072, 393225, 0, 131074, 393233, 0, 65539, 393239, 0, 65536, 393240, 0, 65537, 393241, 0, 65537, 393242, 0, 262149, 393243, 0, 196609, 393244, 0, 196609, 393245, 0, 196609, 393246, 0, 196609, 393247, 0, 196611, 524284, 0, 65540, 524285, 0, 131073, 524286, 0, 131073, 524287, 0, 131074, 458753, 0, 131072, 458754, 0, 131073, 458755, 0, 131073, 458756, 0, 131073, 458757, 0, 131074, 458768, 0, 196608, 458769, 0, 196615, 458775, 0, 131072, 458776, 0, 65542, 458777, 0, 65537, 458778, 0, 65538, 458783, 0, 196612, 458784, 0, 7, 589819, 0, 4, 589820, 0, 196615, 524303, 0, 3, 524312, 0, 65536, 524313, 0, 65541, 524314, 0, 131074, 524320, 0, 65539, 655344, 0, 0, 655345, 0, 1, 655346, 0, 1, 655347, 0, 1, 655348, 0, 1, 655349, 0, 1, 655350, 0, 2, 655354, 0, 0, 655355, 0, 131079, 589832, 0, 3, 589839, 0, 65539, 589848, 0, 131072, 589849, 0, 131074, 589855, 0, 4, 589856, 0, 196615, 720880, 0, 65536, 720881, 0, 65537, 720882, 0, 65537, 720883, 0, 65537, 720884, 0, 65537, 720885, 0, 65537, 720886, 0, 131077, 720887, 0, 1, 720888, 0, 1, 720889, 0, 1, 720890, 0, 131078, 720891, 0, 65538, 655368, 0, 131076, 655369, 0, 1, 655370, 0, 2, 655374, 0, 0, 655375, 0, 131079, 655391, 0, 131075, 786416, 0, 65536, 786417, 0, 65537, 786418, 0, 65537, 786419, 0, 65537, 786420, 0, 65537, 786421, 0, 65541, 786422, 0, 131073, 786423, 0, 131073, 786424, 0, 131073, 786425, 0, 65542, 786426, 0, 65537, 786427, 0, 65538, 720904, 0, 131072, 720905, 0, 131073, 720906, 0, 9, 720907, 0, 1, 720908, 0, 1, 720909, 0, 1, 720910, 0, 65545, 720911, 0, 131074, 720928, 0, 3, 851952, 0, 65536, 851953, 0, 65537, 851954, 0, 65537, 851955, 0, 65537, 851956, 0, 65537, 851957, 0, 65538, 851961, 0, 131072, 851962, 0, 65542, 851963, 0, 131077, 851964, 0, 2, 786442, 0, 65536, 786443, 0, 65537, 786444, 0, 65537, 786445, 0, 65541, 786446, 0, 131074, 786464, 0, 131076, 786465, 0, 1, 786466, 0, 1, 786467, 0, 2, 917488, 0, 65536, 917489, 0, 65537, 917490, 0, 65537, 917491, 0, 65541, 917492, 0, 131073, 917493, 0, 131074, 917498, 0, 131072, 917499, 0, 131073, 917500, 0, 9, 917501, 0, 2, 851978, 0, 131072, 851979, 0, 65542, 851980, 0, 65541, 851981, 0, 131074, 851993, 0, 4, 851994, 0, 196609, 851995, 0, 196609, 851996, 0, 196610, 852000, 0, 131072, 852001, 0, 65542, 852002, 0, 65537, 852003, 0, 65538, 983024, 0, 131072, 983025, 0, 131073, 983026, 0, 131073, 983027, 0, 131074, 983036, 0, 131072, 983037, 0, 9, 983038, 0, 2, 917515, 0, 65536, 917516, 0, 65538, 917529, 0, 65539, 917537, 0, 131072, 917538, 0, 65542, 917539, 0, 131077, 917540, 0, 2, 1048573, 0, 131072, 1048574, 0, 65543, 983048, 0, 3, 983051, 0, 65536, 983052, 0, 131077, 983053, 0, 1, 983054, 0, 1, 983055, 0, 2, 983065, 0, 65539, 983074, 0, 65540, 983075, 0, 131073, 983076, 0, 131074, 1114110, 0, 131076, 1114111, 0, 1, 1048576, 0, 1, 1048577, 0, 1, 1048578, 0, 2, 1048584, 0, 196612, 1048585, 0, 6, 1048586, 0, 1, 1048587, 0, 131078, 1048588, 0, 65537, 1048589, 0, 65537, 1048590, 0, 65537, 1048591, 0, 65538, 1048601, 0, 65539, 1048610, 0, 131075, 1179646, 0, 65536, 1179647, 0, 65537, 1114112, 0, 65537, 1114113, 0, 65541, 1114114, 0, 131074, 1114121, 0, 65536, 1114122, 0, 65537, 1114123, 0, 65537, 1114124, 0, 65537, 1114125, 0, 65537, 1114126, 0, 65537, 1114127, 0, 65538, 1114136, 0, 4, 1114137, 0, 196615, 1245182, 0, 65536, 1245183, 0, 65541, 1179648, 0, 131073, 1179649, 0, 131074, 1179656, 0, 0, 1179657, 0, 131078, 1179658, 0, 65537, 1179659, 0, 65537, 1179660, 0, 65541, 1179661, 0, 131073, 1179662, 0, 131073, 1179663, 0, 65543, 1179670, 0, 196608, 1179671, 0, 196609, 1179672, 0, 196615, 1310717, 0, 196608, 1310718, 0, 196614, 1310719, 0, 131074, 1245192, 0, 131072, 1245193, 0, 131073, 1245194, 0, 65542, 1245195, 0, 65541, 1245196, 0, 131074, 1245199, 0, 131075, 1310730, 0, 131072, 1310731, 0, 131074 )

[node name="DirtCliffTileMap" type="TileMap" parent="."]
tile_set = SubResource( 49 )
cell_size = Vector2( 32, 32 )
collision_mask = 0
format = 1
tile_data = PoolIntArray( -589820, 0, 4, -589819, 0, 196609, -589818, 0, 7, -589815, 0, 4, -589814, 0, 196609, -589813, 0, 7, -589811, 0, 0, -589810, 0, 2, -458762, 0, 0, -458761, 0, 1, -458760, 0, 2, -458758, 0, 3, -458756, 0, 0, -458755, 0, 1, -458754, 0, 2, -524287, 0, 0, -524286, 0, 1, -524285, 0, 1, -524284, 0, 131079, -524282, 0, 131076, -524281, 0, 1, -524280, 0, 1, -524279, 0, 131079, -524277, 0, 131076, -524276, 0, 1, -524275, 0, 131078, -524274, 0, 131077, -524273, 0, 2, -393226, 0, 65536, -393225, 0, 65537, -393224, 0, 131077, -393223, 0, 5, -393222, 0, 196616, -393221, 0, 196609, -393220, 0, 196614, -393219, 0, 131073, -393218, 0, 196613, -393217, 0, 196609, -458752, 0, 196609, -458751, 0, 196614, -458750, 0, 131073, -458749, 0, 131073, -458748, 0, 9, -458747, 0, 5, -458746, 0, 196614, -458745, 0, 131073, -458744, 0, 131073, -458743, 0, 196613, -458742, 0, 196609, -458741, 0, 196614, -458740, 0, 131073, -458739, 0, 131073, -458738, 0, 131073, -458737, 0, 196613, -458736, 0, 196609, -458735, 0, 196609, -458734, 0, 6, -458733, 0, 2, -327690, 0, 65540, -327689, 0, 131073, -327688, 0, 131073, -327687, 0, 131074, -393212, 0, 131072, -393211, 0, 131074, -393198, 0, 131072, -393197, 0, 9, -393196, 0, 2, -262155, 0, 0, -262154, 0, 131079, -262150, 0, 3, -262145, 0, 0, -327680, 0, 2, -327669, 0, 0, -327668, 0, 1, -327667, 0, 5, -327666, 0, 196610, -327661, 0, 65536, -327660, 0, 65538, -196621, 0, 0, -196620, 0, 5, -196619, 0, 196614, -196618, 0, 65543, -196616, 0, 196608, -196615, 0, 6, -196614, 0, 131080, -196613, 0, 2, -196610, 0, 196608, -196609, 0, 262150, -262144, 0, 131077, -262143, 0, 5, -262142, 0, 196610, -262134, 0, 4, -262133, 0, 196614, -262132, 0, 131073, -262131, 0, 65543, -262126, 0, 0, -262125, 0, 65545, -262124, 0, 131074, -131085, 0, 131072, -131084, 0, 131074, -131082, 0, 65539, -131079, 0, 131072, -131078, 0, 131073, -131077, 0, 65543, -131073, 0, 131072, -196608, 0, 131073, -196607, 0, 131074, -196599, 0, 196608, -196598, 0, 196615, -196595, 0, 131075, -196590, 0, 65536, -196589, 0, 65538, -65547, 0, 0, -65546, 0, 131082, -65545, 0, 196610, -65541, 0, 65539, -131054, 0, 65536, -131053, 0, 65538, -11, 0, 65536, -10, 0, 65538, -5, 0, 131075, -1, 0, 0, -65536, 0, 1, -65535, 0, 1, -65534, 0, 1, -65533, 0, 1, -65532, 0, 2, -65529, 0, 0, -65528, 0, 1, -65527, 0, 1, -65526, 0, 2, -65524, 0, 3, -65519, 0, 0, -65518, 0, 131078, -65517, 0, 65538, 65524, 0, 196608, 65525, 0, 196614, 65526, 0, 65543, 65535, 0, 131072, 0, 0, 131073, 1, 0, 131073, 2, 0, 131073, 3, 0, 131073, 4, 0, 131074, 7, 0, 131072, 8, 0, 131073, 9, 0, 131073, 10, 0, 131074, 12, 0, 196612, 13, 0, 6, 14, 0, 2, 17, 0, 131072, 18, 0, 131073, 19, 0, 9, 20, 0, 2, 131062, 0, 131076, 131063, 0, 2, 65549, 0, 131072, 65550, 0, 131074, 65555, 0, 65536, 65556, 0, 131077, 65557, 0, 2, 196596, 0, 196608, 196597, 0, 6, 196598, 0, 131078, 196599, 0, 131077, 196600, 0, 2, 196604, 0, 3, 131091, 0, 65536, 131092, 0, 65541, 131093, 0, 131074, 262133, 0, 65536, 262134, 0, 65537, 262135, 0, 65541, 262136, 0, 131074, 262139, 0, 196608, 262140, 0, 196615, 196611, 0, 3, 196617, 0, 0, 196618, 0, 2, 196625, 0, 3, 196627, 0, 65536, 196628, 0, 65538, 327669, 0, 131072, 327670, 0, 131073, 327671, 0, 65543, 327679, 0, 0, 262144, 0, 2, 262146, 0, 0, 262147, 0, 131079, 262152, 0, 0, 262153, 0, 131078, 262154, 0, 65538, 262158, 0, 3, 262161, 0, 196612, 262162, 0, 6, 262163, 0, 131078, 262164, 0, 65538, 393207, 0, 65539, 393215, 0, 131072, 327680, 0, 196613, 327681, 0, 6, 327682, 0, 131078, 327683, 0, 65538, 327688, 0, 65536, 327689, 0, 65537, 327690, 0, 262149, 327691, 0, 196609, 327692, 0, 196609, 327693, 0, 196609, 327694, 0, 196615, 327698, 0, 131072, 327699, 0, 65542, 327700, 0, 131077, 327701, 0, 2, 458742, 0, 4, 458743, 0, 196615, 393217, 0, 131072, 393218, 0, 131073, 393219, 0, 131074, 393224, 0, 131072, 393225, 0, 65542, 393226, 0, 65538, 393235, 0, 65536, 393236, 0, 65537, 393237, 0, 65538, 524277, 0, 0, 524278, 0, 131079, 524283, 0, 3, 458761, 0, 65536, 458762, 0, 262149, 458763, 0, 196610, 458766, 0, 4, 458767, 0, 196610, 458771, 0, 65540, 458772, 0, 131073, 458773, 0, 196613, 458774, 0, 196610, 589813, 0, 65536, 589814, 0, 131077, 589815, 0, 5, 589816, 0, 196609, 589817, 0, 196610, 589819, 0, 196612, 589820, 0, 196609, 589821, 0, 7, 524290, 0, 3, 524297, 0, 131072, 524298, 0, 131074, 524302, 0, 131075, 524306, 0, 0, 524307, 0, 131079, 655348, 0, 0, 655349, 0, 131078, 655350, 0, 65541, 655351, 0, 131074, 655357, 0, 65539, 589826, 0, 65539, 589840, 0, 4, 589841, 0, 196609, 589842, 0, 196614, 589843, 0, 65543, 720884, 0, 65536, 720885, 0, 65537, 720886, 0, 65538, 720893, 0, 65539, 655361, 0, 0, 655362, 0, 131079, 655369, 0, 0, 655370, 0, 2, 655372, 0, 0, 655373, 0, 2, 655375, 0, 0, 655376, 0, 131079, 655379, 0, 65539, 786420, 0, 131072, 786421, 0, 131073, 786422, 0, 9, 786423, 0, 1, 786424, 0, 1, 786425, 0, 1, 786426, 0, 1, 786427, 0, 1, 786428, 0, 1, 786429, 0, 131080, 786430, 0, 1, 786431, 0, 1, 720896, 0, 1, 720897, 0, 65545, 720898, 0, 196613, 720899, 0, 196609, 720900, 0, 6, 720901, 0, 1, 720902, 0, 1, 720903, 0, 1, 720904, 0, 1, 720905, 0, 65545, 720906, 0, 196613, 720907, 0, 196609, 720908, 0, 262150, 720909, 0, 131077, 720910, 0, 1, 720911, 0, 131078, 720912, 0, 262149, 720913, 0, 196609, 720914, 0, 196609, 720915, 0, 196615, 851958, 0, 65540, 851959, 0, 131073, 851960, 0, 131073, 851961, 0, 131073, 851962, 0, 131073, 851963, 0, 131073, 851964, 0, 65542, 851965, 0, 65537, 851966, 0, 65537, 851967, 0, 65537, 786432, 0, 65537, 786433, 0, 65538, 786436, 0, 131072, 786437, 0, 65544, 786438, 0, 131073, 786439, 0, 65542, 786440, 0, 65541, 786441, 0, 131074, 786444, 0, 131072, 786445, 0, 131073, 786446, 0, 131073, 786447, 0, 131073, 786448, 0, 131074, 917494, 0, 131075, 917500, 0, 131072, 917501, 0, 131073, 917502, 0, 65544, 917503, 0, 131073, 851968, 0, 131073, 851969, 0, 131074, 851973, 0, 131075, 851975, 0, 131072, 851976, 0, 131074, 851978, 0, 196608, 851979, 0, 196610, 983038, 0, 131075 )

[node name="Camera2D" parent="." instance=ExtResource( 9 )]
position = Vector2( 160.16, 73.8927 )

[node name="TopLeft" parent="Camera2D/Limits" index="0"]
position = Vector2( -304, -216 )

[node name="BottomRight" parent="Camera2D/Limits" index="1"]
position = Vector2( 624, 360 )

[node name="YSort" type="YSort" parent="."]

[node name="Player" parent="YSort" instance=ExtResource( 2 )]
position = Vector2( 160.16, 73.8927 )

[node name="RemoteTransform2D" type="RemoteTransform2D" parent="YSort/Player"]
remote_path = NodePath("../../../Camera2D")

[node name="Bushes" type="YSort" parent="YSort"]

[node name="Bush" parent="YSort/Bushes" instance=ExtResource( 1 )]
position = Vector2( 64, 40 )

[node name="Bush2" parent="YSort/Bushes" instance=ExtResource( 1 )]
position = Vector2( 80, 122.223 )

[node name="Bush3" parent="YSort/Bushes" instance=ExtResource( 1 )]
position = Vector2( 256, 40 )

[node name="Grass" type="YSort" parent="YSort"]

[node name="Grass" parent="YSort/Grass" instance=ExtResource( 6 )]
position = Vector2( 104, 40 )

[node name="Grass2" parent="YSort/Grass" instance=ExtResource( 6 )]
position = Vector2( 120, 40 )

[node name="Grass3" parent="YSort/Grass" instance=ExtResource( 6 )]
position = Vector2( 136, 40 )

[node name="Grass4" parent="YSort/Grass" instance=ExtResource( 6 )]
position = Vector2( 40, 152 )

[node name="Grass5" parent="YSort/Grass" instance=ExtResource( 6 )]
position = Vector2( 56, 152 )

[node name="Grass6" parent="YSort/Grass" instance=ExtResource( 6 )]
position = Vector2( 56, 136 )

[node name="Grass7" parent="YSort/Grass" instance=ExtResource( 6 )]
position = Vector2( 40, 136 )

[node name="Enemies" type="YSort" parent="YSort"]

[node name="Bat" parent="YSort/Enemies" instance=ExtResource( 7 )]
position = Vector2( 240, 64 )

[node name="Bat2" parent="YSort/Enemies" instance=ExtResource( 7 )]
position = Vector2( 264, 118.223 )

[node name="Bat3" parent="YSort/Enemies" instance=ExtResource( 7 )]
position = Vector2( 219, 122.223 )

[node name="Bat4" parent="YSort/Enemies" instance=ExtResource( 7 )]
position = Vector2( 304, 72 )

[node name="Bat5" parent="YSort/Enemies" instance=ExtResource( 7 )]
position = Vector2( 304, 45 )

[node name="CanvasLayer" type="CanvasLayer" parent="."]

[node name="HealthUI" parent="CanvasLayer" instance=ExtResource( 8 )]
margin_left = 4.0
margin_top = 4.0
margin_right = 48.0
margin_bottom = 16.0

[editable path="Camera2D"]
